{
    "app_categories": {
        "Connectivity": "kalavaDika",
        "Development": "అభివృద్ధి",
        "Games": "ఆట",
        "Graphics": "గ్రాఫిక్స్",
        "Internet": "అంతర్జాలం",
        "Money": "డబ్బు",
        "Multimedia": "మల్టీమీడియా",
        "Navigation": "నౌకాయానం",
        "Phone & SMS": "ఫోన్ & ఎస్ఎంఎస్",
        "Reading": "చదవటం",
        "Science & Education": "విజ్ఞానం & విద్య",
        "Security": "రక్షణ",
        "Sports & Health": "క్రీడలు & ఆరోగ్యం",
        "System": "వ్యవస్థ",
        "Time": "సమయం",
        "Writing": "వ్రాయటం",
        "show_all_packages": "మొత్తం %d ని వీక్షించండి"
    }
}
